…
# Creating yearly averages

average_annual_anomaly <- tidyweather %>% 
  group_by(Year) %>%   #grouping data by Year
  
# Finding the mean delta
  
  summarise(annual_average_delta = mean(delta, na.rm=TRUE)) 

average_annual_anomaly

## # A tibble: 140 x 2
##     Year annual_average_delta
##    <dbl>                <dbl>
##  1  1880               -0.315
##  2  1881               -0.19 
##  3  1882               -0.214
##  4  1883               -0.318
##  5  1884               -0.439
##  6  1885               -0.405
##  7  1886               -0.415
##  8  1887               -0.403
##  9  1888               -0.222
## 10  1889               -0.161
## # ... with 130 more rows
…
#Preparation for left join 
life_expectancy_tidy$date <- as.double(life_expectancy_tidy$date)
hiv_tidy$date <- as.double(hiv_tidy$date)

#Left join the data frames
three_combined <- left_join(worldbank_data,life_expectancy_tidy) %>%
  left_join(.,hiv_tidy) %>%
   mutate(region= countrycode(sourcevar = country, origin = "country.name",destination = "region"))

three_combined

## # A tibble: 12,369 x 11
##    iso2c iso3c country  date NY.GDP.PCAP.KD SE.PRM.NENR SH.DYN.MORT
##    <chr> <chr> <chr>   <dbl>          <dbl>       <dbl>       <dbl>
##  1 AW    ABW   Aruba    1960             NA          NA          NA
##  2 AW    ABW   Aruba    1961             NA          NA          NA
##  3 AW    ABW   Aruba    1962             NA          NA          NA
##  4 AW    ABW   Aruba    1963             NA          NA          NA
##  5 AW    ABW   Aruba    1964             NA          NA          NA
##  6 AW    ABW   Aruba    1965             NA          NA          NA
##  7 AW    ABW   Aruba    1966             NA          NA          NA
##  8 AW    ABW   Aruba    1967             NA          NA          NA
##  9 AW    ABW   Aruba    1968             NA          NA          NA
## 10 AW    ABW   Aruba    1969             NA          NA          NA
## # ... with 12,359 more rows, and 4 more variables: SP.DYN.TFRT.IN <dbl>,
## #   life_expectancy <dbl>, hiv_prevalence <dbl>, region <chr>
…
